Retrieving data from APIs with httr2 – Statistical Programming Paradigms and Workflows
…
Then, we can extract specific data from the commits including details like the commit message, author, and date. We will create a simplified data frame with just these columns.

commits_df <- tibble(
    sha = commits$sha,
    author = commits$commit$author$name,
    date = commits$commit$author$date,
    message = commits$commit$message)
commits_df

# A tibble: 30 × 4
   sha                                      author               date    message
   <chr>                                    <chr>                <chr>   <chr>  
 1 fb25640fa1eb74746a7a74a06090045106e5d20f Kirill Müller        2024-1… "Move …
 2 e4e9a295a373b85e02ae084a23f12e9212a72b98 Davis Vaughan        2024-1… "Remov…
 3 1d17672a54305170dc75c251f8ae69a85c0bea37 Mike Du              2024-0… "Add e…
 4 cfb25a030f9f7c39f77fed2c97f3fa7b15a55e84 Adam                 2024-0… "Add d…
 5 85e94fcde02ad49c77510991078899278489fd8f Núria Mercadé-Besora 2024-0… "Docum…
 6 e0555277878ed174d40bda86690674ecdc27db55 James Wade           2024-0… "Add a…
 7 173b4232bff810f563e1739211ea7545ed0651e6 Kirill Müller        2024-0… "Fix e…
 8 b2c7e047081301afe2ca376c508491d77bea4bde Jeremy Winget        2024-0… "Fix `…
 9 663d7f07140b45d5d3a256465728d9d5c35b9455 Rodrigo Dal Ben      2024-0… "Fix t…
10 cdc99196a2d80f14b48ceb5edad328ab34a5bf65 Davis Vaughan        2024-0… "Add `…
# ℹ 20 more rows
…
Now, we check the response as before

if (resp_status(response) == 200) {
  commits <- resp_body_json(response, simplifyVector = TRUE)
  commits_df <- tibble(
    sha = commits$sha,
    author = commits$commit$author$name,
    date = commits$commit$author$date,
    message = commits$commit$message)
  commits_df
} else {
  message("Failed to retrieve data. Status code: ", resp_status(response))
}

# A tibble: 30 × 4
   sha                                      author               date    message
   <chr>                                    <chr>                <chr>   <chr>  
 1 fb25640fa1eb74746a7a74a06090045106e5d20f Kirill Müller        2024-1… "Move …
 2 e4e9a295a373b85e02ae084a23f12e9212a72b98 Davis Vaughan        2024-1… "Remov…
 3 1d17672a54305170dc75c251f8ae69a85c0bea37 Mike Du              2024-0… "Add e…
 4 cfb25a030f9f7c39f77fed2c97f3fa7b15a55e84 Adam                 2024-0… "Add d…
 5 85e94fcde02ad49c77510991078899278489fd8f Núria Mercadé-Besora 2024-0… "Docum…
 6 e0555277878ed174d40bda86690674ecdc27db55 James Wade           2024-0… "Add a…
 7 173b4232bff810f563e1739211ea7545ed0651e6 Kirill Müller        2024-0… "Fix e…
 8 b2c7e047081301afe2ca376c508491d77bea4bde Jeremy Winget        2024-0… "Fix `…
 9 663d7f07140b45d5d3a256465728d9d5c35b9455 Rodrigo Dal Ben      2024-0… "Fix t…
10 cdc99196a2d80f14b48ceb5edad328ab34a5bf65 Davis Vaughan        2024-0… "Add `…
# ℹ 20 more rows
…
